992
328 -64 -64 512
-40 16 -24 8 -88 -72 -96 -56 -48 -88 376
-48 -8 232 -80 -80 504
-96 128 -24 720
-8 -40 -72 16 -16 80 -16 -80 -80 -80 -96 -80 -96 128
352 -96 528
-96 40 -32 32 -40 8 -88 -96 496
-32 -16 -24 -72 32 -32 -8 -80 632
8 -8 32 -48 56 -80 80 -48 -72 -32 -56 -96 -24 -96 144
